100.0 10 500
CAL 0 121.83 122.26 123.94 122.11 120.58
UCB 0 52.34 50.89 47.62 51.16 52.4
RIT 0 100.21 99.33 102.87 110.63 110.72
UCLA 0 12.5 27.22 9.32 16.07 3.86
USC 0 249.58 244.24 242.56 245.13 245.35
UFL 0 20.21 19.77 21.34 20.21 21.17
UMAD 0 109.39 120.49 131.35 127.97 121.38
RICE 0 126.3 128.0 129.08 129.28 124.44
UMD 0 102.96 103.62 98.22 96.6 99.1
UCSC 0 213.77 193.51 178.53 180.08 208.29
