2335.71 10 1
CAL 9.0 121.42 124.11 117.79 126.86 126.97
UCB 10.0 64.06 66.31 60.6 57.71 59.31
RIT 1.0 1319.43 1319.91 1427.51 1332.04 1392.92
UCLA 12.0 31.91 4.51 19.77 6.73 24.95
USC 9.0 397.8 409.26 395.06 389.56 389.03
UFL 4.0 58.55 60.19 57.64 61.51 63.65
UMAD 2.0 118.19 137.31 115.23 108.89 103.53
RICE 7.0 123.46 124.89 121.25 119.32 119.4
UMD 1.0 80.08 74.68 73.76 74.97 76.83
UCSC 6.0 187.58 198.41 189.24 195.72 197.88
