100.0 10 493
CAL 0 118.37 124.3 126.5 120.8 119.9
UCB 0 50.99 51.3 50.21 48.66 48.9
RIT 0 112.24 111.5 109.4 114.01 120.31
UCLA 0 6.5 29.76 6.82 4.05 4.89
USC 0 244.98 250.49 244.85 232.89 251.94
UFL 0 24.76 23.53 26.1 27.75 27.86
UMAD 0 101.45 111.91 126.09 148.89 142.16
RICE 0 129.41 117.72 124.5 124.92 119.7
UMD 0 101.35 102.21 95.76 104.75 98.07
UCSC 0 225.7 209.92 177.39 160.26 169.34
